simWorkspace/pe_flow_ctrl/test.vcd
$version Generated by VerilatedVcd $end
$date Sun Jun 19 15:29:00 2022
 $end
$timescale   1ps $end

 $scope module TOP $end
  $var wire  1 /! clk $end
  $var wire  1 %! ifscp_ctrl_cast_mode $end
  $var wire  6 #! ifscp_ctrl_hw_addr [5:0] $end
  $var wire  4 $! ifscp_ctrl_ich_addr [3:0] $end
  $var wire  1 "! ifscp_ctrl_if_rd $end
  $var wire  1 ~ pe_ctrl_bias_mul_en $end
  $var wire  1 | pe_ctrl_byp_mul_en $end
  $var wire  1 } pe_ctrl_maxpool_en $end
  $var wire  1 y pe_ctrl_ps_allow_rd $end
  $var wire  1 t pe_ctrl_ps_back_en $end
  $var wire  1 z pe_ctrl_ps_pinA_bias_en $end
  $var wire  1 { pe_ctrl_ps_pinB_bias_en $end
  $var wire  7 v pe_ctrl_ps_raddr [6:0] $end
  $var wire  1 x pe_ctrl_ps_rd $end
  $var wire  1 !! pe_ctrl_ps_scale_en $end
  $var wire  7 u pe_ctrl_ps_waddr [6:0] $end
  $var wire  1 w pe_ctrl_ps_wr $end
  $var wire  1 ,! pe_flags_ps_rd_ready $end
  $var wire  1 -! pe_flags_ps_wr_ready $end
  $var wire  1 0! reset $end
  $var wire  1 q rg_ctrl_bias_en $end
  $var wire  1 r rg_ctrl_scale_en $end
  $var wire  1 s rg_ctrl_tensor_op_en $end
  $var wire  8 e rg_para_Ci [7:0] $end
  $var wire  8 d rg_para_Co [7:0] $end
  $var wire  8 b rg_para_Hi [7:0] $end
  $var wire  8 ^ rg_para_Hk [7:0] $end
  $var wire  8 ` rg_para_Ho [7:0] $end
  $var wire  8 c rg_para_Wi [7:0] $end
  $var wire  8 _ rg_para_Wk [7:0] $end
  $var wire  8 a rg_para_Wo [7:0] $end
  $var wire  4 j rg_para_dh [3:0] $end
  $var wire  4 k rg_para_dw [3:0] $end
  $var wire  4 n rg_para_k [3:0] $end
  $var wire  4 h rg_para_ph [3:0] $end
  $var wire  4 i rg_para_pw [3:0] $end
  $var wire  4 f rg_para_sh [3:0] $end
  $var wire  6 o rg_para_shxhat [5:0] $end
  $var wire  4 g rg_para_sw [3:0] $end
  $var wire  6 ] rg_para_x [5:0] $end
  $var wire  6 [ rg_para_xhat [5:0] $end
  $var wire  7 p rg_para_xyzs [6:0] $end
  $var wire  6 \ rg_para_y [5:0] $end
  $var wire  6 Z rg_para_yhat [5:0] $end
  $var wire  4 m rg_para_zp [3:0] $end
  $var wire  4 l rg_para_zs [3:0] $end
  $var wire  1 Y start_conv $end
  $var wire  1 .! subconv_finish $end
  $var wire  3 *! wescp_ctrl_bs_byte_cnt [2:0] $end
  $var wire  1 (! wescp_ctrl_bs_rd $end
  $var wire  1 '! wescp_ctrl_bs_wr $end
  $var wire  4 +! wescp_ctrl_och_gcnt [3:0] $end
  $var wire  1 )! wescp_ctrl_sc_rd $end
  $var wire  1 &! wescp_ctrl_we_rd $end
  $scope module pe_flow_ctrl $end
   $var wire  1 /! clk $end
   $var wire  1 * dofetch $end
   $var wire  2 A fsm_curr_state [1:0] $end
   $var wire 72 B fsm_curr_state_string [71:0] $end
   $var wire  2 3! fsm_enumDef_IDLE [1:0] $end
   $var wire  2 4! fsm_enumDef_SUBCONV [1:0] $end
   $var wire  2 5! fsm_enumDef_TENSOR_OP [1:0] $end
   $var wire  2 U fsm_next_state [1:0] $end
   $var wire 72 V fsm_next_state_string [71:0] $end
   $var wire  1 6! fsm_wantExit $end
   $var wire  1 6! fsm_wantKill $end
   $var wire  1 6! fsm_wantStart $end
   $var wire  8 % hki_cnt [7:0] $end
   $var wire  1 J hki_reach_th $end
   $var wire  1 K hki_sigs_inc $end
   $var wire  1 J hki_sigs_reach_th $end
   $var wire  1 I hki_sigs_this_ov $end
   $var wire  1 I hki_this_ov $end
   $var wire  1 %! ifscp_ctrl_cast_mode $end
   $var wire  6 #! ifscp_ctrl_hw_addr [5:0] $end
   $var wire  4 $! ifscp_ctrl_ich_addr [3:0] $end
   $var wire  1 "! ifscp_ctrl_if_rd $end
   $var wire  1 : ifscp_ctrl_rgs_cast_mode $end
   $var wire  6 8 ifscp_ctrl_rgs_hw_addr [5:0] $end
   $var wire  4 9 ifscp_ctrl_rgs_ich_addr [3:0] $end
   $var wire  1 7 ifscp_ctrl_rgs_if_rd $end
   $var wire  8 # kz_cnt [7:0] $end
   $var wire  1 F kz_reach_th $end
   $var wire  1 G kz_sigs_inc $end
   $var wire  1 F kz_sigs_reach_th $end
   $var wire  1 E kz_sigs_this_ov $end
   $var wire  8 1! kz_step [7:0] $end
   $var wire  1 E kz_this_ov $end
   $var wire  4 $ kzi_cnt [3:0] $end
   $var wire  1 H kzi_reach_th $end
   $var wire  1 I kzi_sigs_inc $end
   $var wire  1 H kzi_sigs_reach_th $end
   $var wire  1 G kzi_sigs_this_ov $end
   $var wire  1 G kzi_this_ov $end
   $var wire  1 T ofmap_out_ready_flag $end
   $var wire  6 ) oxi_cnt [5:0] $end
   $var wire  1 R oxi_reach_th $end
   $var wire  1 M oxi_sigs_inc $end
   $var wire  1 R oxi_sigs_reach_th $end
   $var wire  1 Q oxi_sigs_this_ov $end
   $var wire  1 Q oxi_this_ov $end
   $var wire  6 ( oyi_cnt [5:0] $end
   $var wire  1 P oyi_reach_th $end
   $var wire  1 Q oyi_sigs_inc $end
   $var wire  1 P oyi_sigs_reach_th $end
   $var wire  1 O oyi_sigs_this_ov $end
   $var wire  1 O oyi_this_ov $end
   $var wire  4 ' ozi_cnt [3:0] $end
   $var wire  1 N ozi_reach_th $end
   $var wire  1 * ozi_sigs_inc $end
   $var wire  1 N ozi_sigs_reach_th $end
   $var wire  1 M ozi_sigs_this_ov $end
   $var wire  1 M ozi_this_ov $end
   $var wire  1 ~ pe_ctrl_bias_mul_en $end
   $var wire  1 | pe_ctrl_byp_mul_en $end
   $var wire  1 } pe_ctrl_maxpool_en $end
   $var wire  1 y pe_ctrl_ps_allow_rd $end
   $var wire  1 t pe_ctrl_ps_back_en $end
   $var wire  1 z pe_ctrl_ps_pinA_bias_en $end
   $var wire  1 { pe_ctrl_ps_pinB_bias_en $end
   $var wire  7 v pe_ctrl_ps_raddr [6:0] $end
   $var wire  1 x pe_ctrl_ps_rd $end
   $var wire  1 !! pe_ctrl_ps_scale_en $end
   $var wire  7 u pe_ctrl_ps_waddr [6:0] $end
   $var wire  1 w pe_ctrl_ps_wr $end
   $var wire  1 5 pe_ctrl_rgs_bias_mul_en $end
   $var wire  1 3 pe_ctrl_rgs_byp_mul_en $end
   $var wire  1 4 pe_ctrl_rgs_maxpool_en $end
   $var wire  1 0 pe_ctrl_rgs_ps_allow_rd $end
   $var wire  1 + pe_ctrl_rgs_ps_back_en $end
   $var wire  1 1 pe_ctrl_rgs_ps_pinA_bias_en $end
   $var wire  1 2 pe_ctrl_rgs_ps_pinB_bias_en $end
   $var wire  7 - pe_ctrl_rgs_ps_raddr [6:0] $end
   $var wire  1 / pe_ctrl_rgs_ps_rd $end
   $var wire  1 6 pe_ctrl_rgs_ps_scale_en $end
   $var wire  7 , pe_ctrl_rgs_ps_waddr [6:0] $end
   $var wire  1 . pe_ctrl_rgs_ps_wr $end
   $var wire  1 ,! pe_flags_ps_rd_ready $end
   $var wire  1 -! pe_flags_ps_wr_ready $end
   $var wire  1 S ps_raddr_ov $end
   $var wire  1 2! ps_waddr_ov $end
   $var wire  1 0! reset $end
   $var wire  1 q rg_ctrl_bias_en $end
   $var wire  1 r rg_ctrl_scale_en $end
   $var wire  1 s rg_ctrl_tensor_op_en $end
   $var wire  8 e rg_para_Ci [7:0] $end
   $var wire  8 d rg_para_Co [7:0] $end
   $var wire  8 b rg_para_Hi [7:0] $end
   $var wire  8 ^ rg_para_Hk [7:0] $end
   $var wire  8 ` rg_para_Ho [7:0] $end
   $var wire  8 c rg_para_Wi [7:0] $end
   $var wire  8 _ rg_para_Wk [7:0] $end
   $var wire  8 a rg_para_Wo [7:0] $end
   $var wire  4 j rg_para_dh [3:0] $end
   $var wire  4 k rg_para_dw [3:0] $end
   $var wire  4 n rg_para_k [3:0] $end
   $var wire  4 h rg_para_ph [3:0] $end
   $var wire  4 i rg_para_pw [3:0] $end
   $var wire  4 f rg_para_sh [3:0] $end
   $var wire  6 o rg_para_shxhat [5:0] $end
   $var wire  4 g rg_para_sw [3:0] $end
   $var wire  6 ] rg_para_x [5:0] $end
   $var wire  6 [ rg_para_xhat [5:0] $end
   $var wire  7 p rg_para_xyzs [6:0] $end
   $var wire  6 \ rg_para_y [5:0] $end
   $var wire  6 Z rg_para_yhat [5:0] $end
   $var wire  4 m rg_para_zp [3:0] $end
   $var wire  4 l rg_para_zs [3:0] $end
   $var wire  1 Y start_conv $end
   $var wire  1 .! subconv_finish $end
   $var wire  3 *! wescp_ctrl_bs_byte_cnt [2:0] $end
   $var wire  1 (! wescp_ctrl_bs_rd $end
   $var wire  1 '! wescp_ctrl_bs_wr $end
   $var wire  4 +! wescp_ctrl_och_gcnt [3:0] $end
   $var wire  3 ? wescp_ctrl_rgs_bs_byte_cnt [2:0] $end
   $var wire  1 = wescp_ctrl_rgs_bs_rd $end
   $var wire  1 < wescp_ctrl_rgs_bs_wr $end
   $var wire  4 @ wescp_ctrl_rgs_och_gcnt [3:0] $end
   $var wire  1 > wescp_ctrl_rgs_sc_rd $end
   $var wire  1 ; wescp_ctrl_rgs_we_rd $end
   $var wire  1 )! wescp_ctrl_sc_rd $end
   $var wire  1 &! wescp_ctrl_we_rd $end
   $var wire  8 & wki_cnt [7:0] $end
   $var wire  1 L wki_reach_th $end
   $var wire  1 O wki_sigs_inc $end
   $var wire  1 L wki_sigs_reach_th $end
   $var wire  1 K wki_sigs_this_ov $end
   $var wire  1 K wki_this_ov $end
   $scope module hki $end
    $var wire  1 /! clk $end
    $var wire  8 % cnt [7:0] $end
    $var wire  8 % cnt_rg [7:0] $end
    $var wire  1 K inc_en $end
    $var wire  1 J reach_th $end
    $var wire  1 0! reset $end
    $var wire  8 8! step [7:0] $end
    $var wire  1 I this_ov $end
    $var wire  8 ^ threshold [7:0] $end
   $upscope $end
   $scope module kz $end
    $var wire  1 /! clk $end
    $var wire  8 # cnt [7:0] $end
    $var wire  8 # cnt_rg [7:0] $end
    $var wire  1 G inc_en $end
    $var wire  1 F reach_th $end
    $var wire  1 0! reset $end
    $var wire  8 1! step [7:0] $end
    $var wire  1 E this_ov $end
    $var wire  8 e threshold [7:0] $end
   $upscope $end
   $scope module kzi $end
    $var wire  1 /! clk $end
    $var wire  4 $ cnt [3:0] $end
    $var wire  4 $ cnt_rg [3:0] $end
    $var wire  1 I inc_en $end
    $var wire  1 H reach_th $end
    $var wire  1 0! reset $end
    $var wire  4 7! step [3:0] $end
    $var wire  1 G this_ov $end
    $var wire  4 n threshold [3:0] $end
   $upscope $end
   $scope module oxi $end
    $var wire  1 /! clk $end
    $var wire  6 ) cnt [5:0] $end
    $var wire  6 ) cnt_rg [5:0] $end
    $var wire  1 M inc_en $end
    $var wire  1 R reach_th $end
    $var wire  1 0! reset $end
    $var wire  6 9! step [5:0] $end
    $var wire  1 Q this_ov $end
    $var wire  6 [ threshold [5:0] $end
   $upscope $end
   $scope module oyi $end
    $var wire  1 /! clk $end
    $var wire  6 ( cnt [5:0] $end
    $var wire  6 ( cnt_rg [5:0] $end
    $var wire  1 Q inc_en $end
    $var wire  1 P reach_th $end
    $var wire  1 0! reset $end
    $var wire  6 9! step [5:0] $end
    $var wire  1 O this_ov $end
    $var wire  6 Z threshold [5:0] $end
   $upscope $end
   $scope module ozi $end
    $var wire  1 /! clk $end
    $var wire  4 ' cnt [3:0] $end
    $var wire  4 ' cnt_rg [3:0] $end
    $var wire  1 * inc_en $end
    $var wire  1 N reach_th $end
    $var wire  1 0! reset $end
    $var wire  4 7! step [3:0] $end
    $var wire  1 M this_ov $end
    $var wire  4 l threshold [3:0] $end
   $upscope $end
   $scope module wki $end
    $var wire  1 /! clk $end
    $var wire  8 & cnt [7:0] $end
    $var wire  8 & cnt_rg [7:0] $end
    $var wire  1 O inc_en $end
    $var wire  1 L reach_th $end
    $var wire  1 0! reset $end
    $var wire  8 8! step [7:0] $end
    $var wire  1 K this_ov $end
    $var wire  8 _ threshold [7:0] $end
   $upscope $end
  $upscope $end
 $upscope $end
$enddefinitions $end


#0
b00000000 #
b0000 $
b00000000 %
b00000000 &
b0000 '
b000000 (
b000000 )
0*
0+
b0000000 ,
b0000000 -
0.
0/
00
01
02
03
04
05
06
07
b000000 8
b0000 9
0:
0;
0<
0=
0>
b000 ?
b0000 @
b00 A
b010010010100010001001100010001010010000000100000001000000010000000100000 B
0E
0F
0G
0H
0I
0J
0K
0L
0M
1N
0O
0P
0Q
0R
0S
0T
b00 U
b010010010100010001001100010001010010000000100000001000000010000000100000 V
0Y
b001001 Z
b000101 [
b001001 \
b000101 ]
b00000010 ^
b00000010 _
b00100111 `
b00111011 a
b00100111 b
b00111011 c
b00001111 d
b00001111 e
b0001 f
b0001 g
b0001 h
b0001 i
b0001 j
b0001 k
b0000 l
b1111 m
b1111 n
b000101 o
b0111011 p
0q
0r
0s
0t
b0000000 u
b0000000 v
0w
0x
0y
0z
0{
0|
0}
0~
0!!
0"!
b000000 #!
b0000 $!
0%!
0&!
0'!
0(!
0)!
b000 *!
b0000 +!
0,!
0-!
0.!
0/!
10!
b00001111 1!
02!
b00 3!
b01 4!
b10 5!
06!
b0001 7!
b00000001 8!
b000001 9!
#10
#32
00!
#34
b01 U
b010100110101010101000010010000110100111101001110010101100010000000100000 V
1Y
1/!
#35
0/!
#36
b01 A
b010100110101010101000010010000110100111101001110010101100010000000100000 B
1,!
1/!
#37
0/!
#38
1*
1/
17
b000001 8
1;
1M
1x
1"!
b000001 #!
1&!
1-!
1/!
#39
0/!
#40
b000001 )
b0000001 -
1.
b000010 8
b0000001 v
1w
b000010 #!
1/!
#41
0/!
#42
b000010 )
b0000001 ,
b0000010 -
b000011 8
b0000001 u
b0000010 v
b000011 #!
1/!
#43
0/!
#44
b000011 )
b0000010 ,
b0000011 -
b000100 8
b0000010 u
b0000011 v
b000100 #!
1/!
#45
0/!
#46
b000100 )
b0000011 ,
b0000100 -
b000101 8
b0000011 u
b0000100 v
b000101 #!
1/!
#47
0/!
#48
b000101 )
b0000100 ,
b0000101 -
b000110 8
1Q
1R
b0000100 u
b0000101 v
b000110 #!
1/!
#49
0/!
#50
b000001 (
b000000 )
b0000101 ,
b0000110 -
b001100 8
0Q
0R
b0000101 u
b0000110 v
b001100 #!
1/!
#51
0/!
#52
b000001 )
b0000110 ,
b0000111 -
b001101 8
b0000110 u
b0000111 v
b001101 #!
1/!
#53
0/!
#54
b000010 )
b0000111 ,
b0001000 -
b001110 8
b0000111 u
b0001000 v
b001110 #!
1/!
#55
0/!
#56
b000011 )
b0001000 ,
b0001001 -
b001111 8
b0001000 u
b0001001 v
b001111 #!
1/!
#57
0/!
#58
b000100 )
b0001001 ,
b0001010 -
b010000 8
b0001001 u
b0001010 v
b010000 #!
1/!
#59
0/!
#60
b000101 )
b0001010 ,
b0001011 -
b010001 8
1Q
1R
b0001010 u
b0001011 v
b010001 #!
1/!
#61
0/!
#62
b000010 (
b000000 )
b0001011 ,
b0001100 -
b010111 8
0Q
0R
b0001011 u
b0001100 v
b010111 #!
1/!
#63
0/!
#64
b000001 )
b0001100 ,
b0001101 -
b011000 8
b0001100 u
b0001101 v
b011000 #!
1/!
#65
0/!
#66
b000010 )
b0001101 ,
b0001110 -
b011001 8
b0001101 u
b0001110 v
b011001 #!
1/!
#67
0/!
#68
b000011 )
b0001110 ,
b0001111 -
b011010 8
b0001110 u
b0001111 v
b011010 #!
1/!
#69
0/!
#70
b000100 )
b0001111 ,
b0010000 -
b011011 8
b0001111 u
b0010000 v
b011011 #!
1/!
#71
0/!
#72
b000101 )
b0010000 ,
b0010001 -
b011100 8
1Q
1R
b0010000 u
b0010001 v
b011100 #!
1/!
#73
0/!
#74
b000011 (
b000000 )
b0010001 ,
b0010010 -
b100010 8
0Q
0R
b0010001 u
b0010010 v
b100010 #!
1/!
#75
0/!
#76
b000001 )
b0010010 ,
b0010011 -
b100011 8
b0010010 u
b0010011 v
b100011 #!
1/!
#77
0/!
#78
b000010 )
b0010011 ,
b0010100 -
b100100 8
b0010011 u
b0010100 v
b100100 #!
1/!
#79
0/!
#80
b000011 )
b0010100 ,
b0010101 -
b100101 8
b0010100 u
b0010101 v
b100101 #!
1/!
#81
0/!
#82
b000100 )
b0010101 ,
b0010110 -
b100110 8
b0010101 u
b0010110 v
b100110 #!
1/!
#83
0/!
#84
b000101 )
b0010110 ,
b0010111 -
b100111 8
1Q
1R
b0010110 u
b0010111 v
b100111 #!
1/!
#85
0/!
#86
b000100 (
b000000 )
b0010111 ,
b0011000 -
b101101 8
0Q
0R
b0010111 u
b0011000 v
b101101 #!
1/!
#87
0/!
#88
b000001 )
b0011000 ,
b0011001 -
b101110 8
b0011000 u
b0011001 v
b101110 #!
1/!
#89
0/!
#90
b000010 )
b0011001 ,
b0011010 -
b101111 8
b0011001 u
b0011010 v
b101111 #!
1/!
#91
0/!
#92
b000011 )
b0011010 ,
b0011011 -
b110000 8
b0011010 u
b0011011 v
b110000 #!
1/!
#93
0/!
#94
b000100 )
b0011011 ,
b0011100 -
b110001 8
b0011011 u
b0011100 v
b110001 #!
1/!
#95
0/!
#96
b000101 )
b0011100 ,
b0011101 -
b110010 8
1Q
1R
b0011100 u
b0011101 v
b110010 #!
1/!
#97
0/!
#98
b000101 (
b000000 )
b0011101 ,
b0011110 -
b111000 8
0Q
0R
b0011101 u
b0011110 v
b111000 #!
1/!
#99
0/!
#100
b000001 )
b0011110 ,
b0011111 -
b111001 8
b0011110 u
b0011111 v
b111001 #!
1/!
#101
0/!
#102
b000010 )
b0011111 ,
b0100000 -
b111010 8
b0011111 u
b0100000 v
b111010 #!
1/!
#103
0/!
#104
b000011 )
b0100000 ,
b0100001 -
b111011 8
b0100000 u
b0100001 v
b111011 #!
1/!
#105
0/!
#106
b000100 )
b0100001 ,
b0100010 -
b111100 8
b0100001 u
b0100010 v
b111100 #!
1/!
#107
0/!
#108
b000101 )
b0100010 ,
b0100011 -
b111101 8
1Q
1R
b0100010 u
b0100011 v
b111101 #!
1/!
#109
0/!
#110
b000110 (
b000000 )
b0100011 ,
b0100100 -
b000011 8
0Q
0R
b0100011 u
b0100100 v
b000011 #!
1/!
#111
0/!
#112
b000001 )
b0100100 ,
b0100101 -
b000100 8
b0100100 u
b0100101 v
b000100 #!
1/!
#113
0/!
#114
b000010 )
b0100101 ,
b0100110 -
b000101 8
b0100101 u
b0100110 v
b000101 #!
1/!
#115
0/!
#116
b000011 )
b0100110 ,
b0100111 -
b000110 8
b0100110 u
b0100111 v
b000110 #!
1/!
#117
0/!
#118
b000100 )
b0100111 ,
b0101000 -
b000111 8
b0100111 u
b0101000 v
b000111 #!
1/!
#119
0/!
#120
b000101 )
b0101000 ,
b0101001 -
b001000 8
1Q
1R
b0101000 u
b0101001 v
b001000 #!
1/!
#121
0/!
#122
b000111 (
b000000 )
b0101001 ,
b0101010 -
b001110 8
0Q
0R
b0101001 u
b0101010 v
b001110 #!
1/!
#123
0/!
#124
b000001 )
b0101010 ,
b0101011 -
b001111 8
b0101010 u
b0101011 v
b001111 #!
1/!
#125
0/!
#126
b000010 )
b0101011 ,
b0101100 -
b010000 8
b0101011 u
b0101100 v
b010000 #!
1/!
#127
0/!
#128
b000011 )
b0101100 ,
b0101101 -
b010001 8
b0101100 u
b0101101 v
b010001 #!
1/!
#129
0/!
#130
b000100 )
b0101101 ,
b0101110 -
b010010 8
b0101101 u
b0101110 v
b010010 #!
1/!
#131
0/!
#132
b000101 )
b0101110 ,
b0101111 -
b010011 8
1Q
1R
b0101110 u
b0101111 v
b010011 #!
1/!
#133
0/!
#134
b001000 (
b000000 )
b0101111 ,
b0110000 -
b011001 8
0Q
0R
b0101111 u
b0110000 v
b011001 #!
1/!
#135
0/!
#136
b000001 )
b0110000 ,
b0110001 -
b011010 8
b0110000 u
b0110001 v
b011010 #!
1/!
#137
0/!
#138
b000010 )
b0110001 ,
b0110010 -
b011011 8
b0110001 u
b0110010 v
b011011 #!
1/!
#139
0/!
#140
b000011 )
b0110010 ,
b0110011 -
b011100 8
b0110010 u
b0110011 v
b011100 #!
1/!
#141
0/!
#142
b000100 )
b0110011 ,
b0110100 -
b011101 8
b0110011 u
b0110100 v
b011101 #!
1/!
#143
0/!
#144
b000101 )
b0110100 ,
b0110101 -
b011110 8
1Q
1R
b0110100 u
b0110101 v
b011110 #!
1/!
#145
0/!
#146
b001001 (
b000000 )
b0110101 ,
b0110110 -
b100100 8
1P
0Q
0R
b0110101 u
b0110110 v
b100100 #!
1/!
#147
0/!
#148
b000001 )
b0110110 ,
b0110111 -
b100101 8
b0110110 u
b0110111 v
b100101 #!
1/!
#149
0/!
#150
b000010 )
b0110111 ,
b0111000 -
b100110 8
b0110111 u
b0111000 v
b100110 #!
1/!
#151
0/!
#152
b000011 )
b0111000 ,
b0111001 -
b100111 8
b0111000 u
b0111001 v
b100111 #!
1/!
#153
0/!
#154
b000100 )
b0111001 ,
b0111010 -
b101000 8
b0111001 u
b0111010 v
b101000 #!
1/!
#155
0/!
#156
b000101 )
b0111010 ,
b0111011 -
b101001 8
1O
1Q
1R
1S
b0111010 u
b0111011 v
b101001 #!
1/!
#157
0/!
#158
b00000001 &
b000000 (
b000000 )
b0111011 ,
b0000000 -
10
b101111 8
0O
0P
0Q
0R
0S
b0111011 u
b0000000 v
1y
b101111 #!
1/!
12!
#159
0/!
#160
b000001 )
b0000000 ,
b0000001 -
b110000 8
b0000000 u
b0000001 v
b110000 #!
1/!
02!
#161
0/!
#162
b000010 )
b0000001 ,
b0000010 -
b110001 8
b0000001 u
b0000010 v
b110001 #!
1/!
#163
0/!
#164
b000011 )
b0000010 ,
b0000011 -
b110010 8
b0000010 u
b0000011 v
b110010 #!
1/!
#165
0/!
#166
b000100 )
b0000011 ,
b0000100 -
b110011 8
b0000011 u
b0000100 v
b110011 #!
1/!
#167
0/!
#168
b000101 )
b0000100 ,
b0000101 -
b110100 8
1Q
1R
b0000100 u
b0000101 v
b110100 #!
1/!
#169
0/!
#170
b000001 (
b000000 )
b0000101 ,
b0000110 -
b111010 8
0Q
0R
b0000101 u
b0000110 v
b111010 #!
1/!
#171
0/!
#172
b000001 )
b0000110 ,
b0000111 -
b111011 8
b0000110 u
b0000111 v
b111011 #!
1/!
#173
0/!
#174
b000010 )
b0000111 ,
b0001000 -
b111100 8
b0000111 u
b0001000 v
b111100 #!
1/!
#175
0/!
#176
b000011 )
b0001000 ,
b0001001 -
b111101 8
b0001000 u
b0001001 v
b111101 #!
1/!
#177
0/!
#178
b000100 )
b0001001 ,
b0001010 -
b111110 8
b0001001 u
b0001010 v
b111110 #!
1/!
#179
0/!
#180
b000101 )
b0001010 ,
b0001011 -
b111111 8
1Q
1R
b0001010 u
b0001011 v
b111111 #!
1/!
#181
0/!
#182
b000010 (
b000000 )
b0001011 ,
b0001100 -
b000101 8
0Q
0R
b0001011 u
b0001100 v
b000101 #!
1/!
#183
0/!
#184
b000001 )
b0001100 ,
b0001101 -
b000110 8
b0001100 u
b0001101 v
b000110 #!
1/!
#185
0/!
#186
b000010 )
b0001101 ,
b0001110 -
b000111 8
b0001101 u
b0001110 v
b000111 #!
1/!
#187
0/!
#188
b000011 )
b0001110 ,
b0001111 -
b001000 8
b0001110 u
b0001111 v
b001000 #!
1/!
#189
0/!
#190
b000100 )
b0001111 ,
b0010000 -
b001001 8
b0001111 u
b0010000 v
b001001 #!
1/!
#191
0/!
#192
b000101 )
b0010000 ,
b0010001 -
b001010 8
1Q
1R
b0010000 u
b0010001 v
b001010 #!
1/!
#193
0/!
#194
b000011 (
b000000 )
b0010001 ,
b0010010 -
b010000 8
0Q
0R
b0010001 u
b0010010 v
b010000 #!
1/!
#195
0/!
#196
b000001 )
b0010010 ,
b0010011 -
b010001 8
b0010010 u
b0010011 v
b010001 #!
1/!
#197
0/!
#198
b000010 )
b0010011 ,
b0010100 -
b010010 8
b0010011 u
b0010100 v
b010010 #!
1/!
#199
0/!
#200
b000011 )
b0010100 ,
b0010101 -
b010011 8
b0010100 u
b0010101 v
b010011 #!
1/!
#201
0/!
#202
b000100 )
b0010101 ,
b0010110 -
b010100 8
b0010101 u
b0010110 v
b010100 #!
1/!
#203
0/!
#204
b000101 )
b0010110 ,
b0010111 -
b010101 8
1Q
1R
b0010110 u
b0010111 v
b010101 #!
1/!
#205
0/!
#206
b000100 (
b000000 )
b0010111 ,
b0011000 -
b011011 8
0Q
0R
b0010111 u
b0011000 v
b011011 #!
1/!
#207
0/!
#208
b000001 )
b0011000 ,
b0011001 -
b011100 8
b0011000 u
b0011001 v
b011100 #!
1/!
#209
0/!
#210
b000010 )
b0011001 ,
b0011010 -
b011101 8
b0011001 u
b0011010 v
b011101 #!
1/!
#211
0/!
#212
b000011 )
b0011010 ,
b0011011 -
b011110 8
b0011010 u
b0011011 v
b011110 #!
1/!
#213
0/!
#214
b000100 )
b0011011 ,
b0011100 -
b011111 8
b0011011 u
b0011100 v
b011111 #!
1/!
#215
0/!
#216
b000101 )
b0011100 ,
b0011101 -
b100000 8
1Q
1R
b0011100 u
b0011101 v
b100000 #!
1/!
#217
0/!
#218
b000101 (
b000000 )
b0011101 ,
b0011110 -
b100110 8
0Q
0R
b0011101 u
b0011110 v
b100110 #!
1/!
#219
0/!
#220
b000001 )
b0011110 ,
b0011111 -
b100111 8
b0011110 u
b0011111 v
b100111 #!
1/!
#221
0/!
#222
b000010 )
b0011111 ,
b0100000 -
b101000 8
b0011111 u
b0100000 v
b101000 #!
1/!
#223
0/!
#224
b000011 )
b0100000 ,
b0100001 -
b101001 8
b0100000 u
b0100001 v
b101001 #!
1/!
#225
0/!
#226
b000100 )
b0100001 ,
b0100010 -
b101010 8
b0100001 u
b0100010 v
b101010 #!
1/!
#227
0/!
#228
b000101 )
b0100010 ,
b0100011 -
b101011 8
1Q
1R
b0100010 u
b0100011 v
b101011 #!
1/!
#229
0/!
#230
b000110 (
b000000 )
b0100011 ,
b0100100 -
b110001 8
0Q
0R
b0100011 u
b0100100 v
b110001 #!
1/!
#231
0/!
#232
b000001 )
b0100100 ,
b0100101 -
b110010 8
b0100100 u
b0100101 v
b110010 #!
1/!
#233
0/!
#234
b000010 )
b0100101 ,
b0100110 -
b110011 8
b0100101 u
b0100110 v
b110011 #!
1/!
#235
0/!
#236
b000011 )
b0100110 ,
b0100111 -
b110100 8
b0100110 u
b0100111 v
b110100 #!
1/!
#237
0/!
#238
b000100 )
b0100111 ,
b0101000 -
b110101 8
b0100111 u
b0101000 v
b110101 #!
1/!
#239
0/!
#240
b000101 )
b0101000 ,
b0101001 -
b110110 8
1Q
1R
b0101000 u
b0101001 v
b110110 #!
1/!
#241
0/!
#242
b000111 (
b000000 )
b0101001 ,
b0101010 -
b111100 8
0Q
0R
b0101001 u
b0101010 v
b111100 #!
1/!
#243
0/!
#244
b000001 )
b0101010 ,
b0101011 -
b111101 8
b0101010 u
b0101011 v
b111101 #!
1/!
#245
0/!
#246
b000010 )
b0101011 ,
b0101100 -
b111110 8
b0101011 u
b0101100 v
b111110 #!
1/!
#247
0/!
#248
b000011 )
b0101100 ,
b0101101 -
b111111 8
b0101100 u
b0101101 v
b111111 #!
1/!
#249
0/!
#250
b000100 )
b0101101 ,
b0101110 -
b000000 8
b0101101 u
b0101110 v
b000000 #!
1/!
#251
0/!
#252
b000101 )
b0101110 ,
b0101111 -
b000001 8
1Q
1R
b0101110 u
b0101111 v
b000001 #!
1/!
#253
0/!
#254
b001000 (
b000000 )
b0101111 ,
b0110000 -
b000111 8
0Q
0R
b0101111 u
b0110000 v
b000111 #!
1/!
#255
0/!
#256
b000001 )
b0110000 ,
b0110001 -
b001000 8
b0110000 u
b0110001 v
b001000 #!
1/!
#257
0/!
#258
b000010 )
b0110001 ,
b0110010 -
b001001 8
b0110001 u
b0110010 v
b001001 #!
1/!
#259
0/!
#260
b000011 )
b0110010 ,
b0110011 -
b001010 8
b0110010 u
b0110011 v
b001010 #!
1/!
#261
0/!
#262
b000100 )
b0110011 ,
b0110100 -
b001011 8
b0110011 u
b0110100 v
b001011 #!
1/!
#263
0/!
#264
b000101 )
b0110100 ,
b0110101 -
b001100 8
1Q
1R
b0110100 u
b0110101 v
b001100 #!
1/!
#265
0/!
#266
b001001 (
b000000 )
b0110101 ,
b0110110 -
b010010 8
1P
0Q
0R
b0110101 u
b0110110 v
b010010 #!
1/!
#267
0/!
#268
b000001 )
b0110110 ,
b0110111 -
b010011 8
b0110110 u
b0110111 v
b010011 #!
1/!
#269
0/!
#270
b000010 )
b0110111 ,
b0111000 -
b010100 8
b0110111 u
b0111000 v
b010100 #!
1/!
#271
0/!
#272
b000011 )
b0111000 ,
b0111001 -
b010101 8
b0111000 u
b0111001 v
b010101 #!
1/!
#273
0/!
#274
b000100 )
b0111001 ,
b0111010 -
b010110 8
b0111001 u
b0111010 v
b010110 #!
1/!
#275
0/!
#276
b000101 )
b0111010 ,
b0111011 -
b010111 8
1O
1Q
1R
1S
b0111010 u
b0111011 v
b010111 #!
1/!
#277
0/!
#278
b00000010 &
b000000 (
b000000 )
b0111011 ,
b0000000 -
b011101 8
1L
0O
0P
0Q
0R
0S
b0111011 u
b0000000 v
b011101 #!
1/!
12!
#279
0/!
#280
b000001 )
b0000000 ,
b0000001 -
b011110 8
b0000000 u
b0000001 v
b011110 #!
1/!
02!
#281
0/!
#282
b000010 )
b0000001 ,
b0000010 -
b011111 8
b0000001 u
b0000010 v
b011111 #!
1/!
#283
0/!
